%YAML 1.1
%TAG !u! tag:unity3d.com,2011:
--- !u!114 &11400000
MonoBehaviour:
  m_ObjectHideFlags: 0
  m_PrefabParentObject: {fileID: 0}
  m_PrefabInternal: {fileID: 0}
  m_GameObject: {fileID: 0}
  m_Enabled: 1
  m_EditorHideFlags: 0
  m_Script: {fileID: 11500000, guid: b4c2aec2c67248e4ead89051335d3d8c, type: 3}
  m_Name: Nun
  m_EditorClassIdentifier: 
  Name: Nun
  CardImage: {fileID: 21300104, guid: ee3fd72a3e93fbd44995e33ccfeacef9, type: 3}
  CardDifficulty: 0
  CardAttribute: 1
  CardType: 1
  ClickEffectsSprites:
  - Sprite: {fileID: 21300000, guid: 8beafffb695cbf041b61444eaf0c2fab, type: 3}
    Value: 0
  - Sprite: {fileID: 21300004, guid: 8beafffb695cbf041b61444eaf0c2fab, type: 3}
    Value: 0
  ExitEffectsSprites: []
  IsQuest: 0
  CardRequirements: []
  OnReveal:
    m_PersistentCalls:
      m_Calls:
      - m_Target: {fileID: 11400000, guid: bc1d3afeb38154c44b2d501be9739782, type: 2}
        m_MethodName: OnExecute
        m_Mode: 5
        m_Arguments:
          m_ObjectArgument: {fileID: 0}
          m_ObjectArgumentAssemblyTypeName: UnityEngine.Object, UnityEngine
          m_IntArgument: 0
          m_FloatArgument: 0
          m_StringArgument: Please. Father Bertold is missing. Help me find him.
          m_BoolArgument: 0
        m_CallState: 2
    m_TypeName: UnityEngine.Events.UnityEvent, UnityEngine.CoreModule, Version=0.0.0.0,
      Culture=neutral, PublicKeyToken=null
  OnClick:
    m_PersistentCalls:
      m_Calls:
      - m_Target: {fileID: 11400000, guid: a02a9cb860e0e52449ad7ea561ff38b7, type: 2}
        m_MethodName: OnExecute
        m_Mode: 2
        m_Arguments:
          m_ObjectArgument: {fileID: 11400000, guid: 35f20e2aa01c8e043a10651a0d89366b,
            type: 2}
          m_ObjectArgumentAssemblyTypeName: QuestConfig, Assembly-CSharp
          m_IntArgument: 0
          m_FloatArgument: 0
          m_StringArgument: 
          m_BoolArgument: 0
        m_CallState: 2
      - m_Target: {fileID: 11400000, guid: b47748742f9255e4683eef672613ab01, type: 2}
        m_MethodName: OnExecute
        m_Mode: 2
        m_Arguments:
          m_ObjectArgument: {fileID: 11400000}
          m_ObjectArgumentAssemblyTypeName: CardConfig, Assembly-CSharp
          m_IntArgument: 0
          m_FloatArgument: 0
          m_StringArgument: 
          m_BoolArgument: 0
        m_CallState: 2
    m_TypeName: UnityEngine.Events.UnityEvent, UnityEngine.CoreModule, Version=0.0.0.0,
      Culture=neutral, PublicKeyToken=null
  OnExit:
    m_PersistentCalls:
      m_Calls: []
    m_TypeName: UnityEngine.Events.UnityEvent, UnityEngine.CoreModule, Version=0.0.0.0,
      Culture=neutral, PublicKeyToken=null
