%YAML 1.1
%TAG !u! tag:unity3d.com,2011:
--- !u!114 &11400000
MonoBehaviour:
  m_ObjectHideFlags: 0
  m_PrefabParentObject: {fileID: 0}
  m_PrefabInternal: {fileID: 0}
  m_GameObject: {fileID: 0}
  m_Enabled: 1
  m_EditorHideFlags: 0
  m_Script: {fileID: 11500000, guid: b4c2aec2c67248e4ead89051335d3d8c, type: 3}
  m_Name: Danger
  m_EditorClassIdentifier: 
  Name: Danger
  CardImage: {fileID: 21300100, guid: ee3fd72a3e93fbd44995e33ccfeacef9, type: 3}
  CardDifficulty: 0
  CardAttribute: 0
  CardType: 2
  ClickEffectsSprites:
  - Sprite: {fileID: 21300004, guid: 8beafffb695cbf041b61444eaf0c2fab, type: 3}
    Value: 0
  ExitEffectsSprites:
  - Sprite: {fileID: 21300018, guid: 8beafffb695cbf041b61444eaf0c2fab, type: 3}
    Value: 0
  IsQuest: 0
  IsPlayerControlled: 0
  IsDangerous: 0
  CardRequirements: []
  OnReveal:
    m_PersistentCalls:
      m_Calls: []
    m_TypeName: UnityEngine.Events.UnityEvent, UnityEngine.CoreModule, Version=0.0.0.0,
      Culture=neutral, PublicKeyToken=null
  OnClick:
    m_PersistentCalls:
      m_Calls:
      - m_Target: {fileID: 11400000, guid: b47748742f9255e4683eef672613ab01, type: 2}
        m_MethodName: OnExecute
        m_Mode: 2
        m_Arguments:
          m_ObjectArgument: {fileID: 11400000}
          m_ObjectArgumentAssemblyTypeName: CardConfig, Assembly-CSharp
          m_IntArgument: 0
          m_FloatArgument: 0
          m_StringArgument: 
          m_BoolArgument: 0
        m_CallState: 2
    m_TypeName: UnityEngine.Events.UnityEvent, UnityEngine.CoreModule, Version=0.0.0.0,
      Culture=neutral, PublicKeyToken=null
  OnExit:
    m_PersistentCalls:
      m_Calls:
      - m_Target: {fileID: 11400000, guid: c5d365acfb9034a4e8597618bdc8f0c5, type: 2}
        m_MethodName: OnExecute
        m_Mode: 3
        m_Arguments:
          m_ObjectArgument: {fileID: 0}
          m_ObjectArgumentAssemblyTypeName: UnityEngine.Object, UnityEngine
          m_IntArgument: 1
          m_FloatArgument: 0
          m_StringArgument: 
          m_BoolArgument: 0
        m_CallState: 2
    m_TypeName: UnityEngine.Events.UnityEvent, UnityEngine.CoreModule, Version=0.0.0.0,
      Culture=neutral, PublicKeyToken=null
